floating_mult_chisel/floating_mult/test_run_dir/MulRawFN_should_multiply_two_floating_point_numbers/MulRawFNWrapper.vcd
$date
2023-09-12T19:12+0000
$end
$version
0.2
$end
$comment

$end
$timescale 1ns  $end
$scope module MulRawFNWrapper $end
 $var wire 1 $ mulRawFN $end
 $var wire 1 ' io_asyncResetSignal $end
 $var wire 11 * io_a_exp $end
 $var wire 1 , clock $end
 $var wire 11 / io_rawOut_exp $end
 $var wire 1 1 reset $end
 $var wire 11 2 io_b_exp $end
 $var wire 52 5 io_b_sig $end
 $var wire 1 8 io_resetDriver $end
 $var wire 52 < io_a_sig $end
 $var wire 54 D io_rawOut_sig $end
  $scope module mulRawFN $end
   $var wire 11 ! io_rawOut_exp $end
   $var wire 1 & guardBit $end
   $var wire 1 ) clock $end
   $var wire 1 + leastSigBitOfResult $end
   $var wire 11 - rawOut_exp_reg $end
   $var wire 1 0 stickyBit $end
   $var wire 1 4 roundBit $end
   $var wire 53 7 rawOut_sig $end
   $var wire 53 : preRoundSig $end
   $var wire 52 ; io_rawOut_sig $end
   $var wire 52 > io_b_sig $end
   $var wire 11 A io_a_exp $end
   $var wire 1 E roundUp $end
   $var wire 52 H io_a_sig $end
   $var wire 11 I io_b_exp $end
   $var wire 11 J rawOut_exp $end
   $var wire 1 K mulFullRaw $end
   $var wire 1 L io_asyncResetSignal $end
   $var wire 52 M rawOut_sig_reg $end
    $scope module mulFullRaw $end
     $var wire 52 " io_b_sig $end
     $var wire 1 # clock $end
     $var wire 52 % io_a_sig $end
     $var wire 11 ( common_expOut $end
     $var wire 1 . io_asyncResetSignal $end
     $var wire 106 3 common_sigOut_reg $end
     $var wire 11 6 io_b_exp $end
     $var wire 1 9 notNaN_isZeroOut $end
     $var wire 11 = io_a_exp $end
     $var wire 11 ? io_rawOut_exp $end
     $var wire 11 @ common_expOut_reg $end
     $var wire 1 B a_iszero $end
     $var wire 1 C b_iszero $end
     $var wire 106 F io_rawOut_sig $end
     $var wire 106 G common_sigOut $end
    $upscope $end
  $upscope $end
  $scope module mulRawFN.mulFullRaw $end
  $upscope $end
$upscope $end
$enddefinitions $end
$dumpvars
b0000000000000000000000000000000000000000000000000000000000000000000000000000000000000000000000000000000000 3
00
01
b0000000000000000000000000000000000000000000000000000 >
04
b00000000000 !
b0000000000000000000000000000000000000000000000000000 H
08
09
b0000000000000000000000000000000000000000000000000000 M
b00000000000 -
b00000000000 *
0B
0C
0E
b00000000000 /
0K
b00000000000 (
0L
b00000000000 =
b000000000000000000000000000000000000000000000000000000 D
b00000000000 @
b0000000000000000000000000000000000000000000000000000 %
b00000000000 A
b0000000000000000000000000000000000000000000000000000 "
b00000000000 ?
b00000000000 2
b00000000000 6
b00000000000000000000000000000000000000000000000000000 7
b00000000000 J
0#
0$
b0000000000000000000000000000000000000000000000000000 5
0&
0'
0)
0+
b0000000000000000000000000000000000000000000000000000 <
b0000000000000000000000000000000000000000000000000000000000000000000000000000000000000000000000000000000000 G
0,
b0000000000000000000000000000000000000000000000000000000000000000000000000000000000000000000000000000000000 F
b00000000000 I
b00000000000000000000000000000000000000000000000000000 :
0.
b0000000000000000000000000000000000000000000000000000 ;
$end
#0
11
1B
1C
b0100000000000000000000000000000000000000000000000000000000000000000000000000000000000000000000000000000000 G
b10000000001 (
19
#1
b10000000001 @
1#
b0100000000000000000000000000000000000000000000000000000000000000000000000000000000000000000000000000000000 3
1)
1,
#6
b00000000000 @
01
0#
b0000000000000000000000000000000000000000000000000000000000000000000000000000000000000000000000000000000000 3
18
0)
0,
1L
1.
#11
1#
1)
1,
#16
0#
08
0)
0,
0L
0.
#21
b10000000001 @
1#
b0100000000000000000000000000000000000000000000000000000000000000000000000000000000000000000000000000000000 3
1)
1,
#26
b10000000001 A
b0001111000010011011100000001011110111101001110110001 "
0B
0#
0C
b0110111000100010110011100001000010110010011011001010 %
b0110011001001001101010111100011101001000000111111010010101011010010110110000110110101111000100111110101010 G
b10000000100 (
b0110111000100010110011100001000010110010011011001010 H
0)
b10000000010 I
b10000000001 *
b10000000001 J
0,
b10000000010 2
b0001111000010011011100000001011110111101001110110001 5
b10000000010 6
09
b0110111000100010110011100001000010110010011011001010 <
b10000000001 =
b0001111000010011011100000001011110111101001110110001 >
b10000000001 ?
#31
b10000000100 @
b10000000001 !
1#
b1001100100100110101011110001110100100000011111101001010101101001011011000011011010111100010011111010101000 F
1)
b10000000100 J
1+
1,
b10000000001 -
b10000000001 /
10
b0110011001001001101010111100011101001000000111111010010101011010010110110000110110101111000100111110101010 3
14
b01001100100100110101011110001110100100000011111101001 7
b01001100100100110101011110001110100100000011111101001 :
b10000000100 ?
#36
0#
0)
0,
#41
b10000000100 !
1#
b001001100100100110101011110001110100100000011111101001 D
1)
b1001100100100110101011110001110100100000011111101001 ;
1,
b10000000100 -
b1001100100100110101011110001110100100000011111101001 M
b10000000100 /
