AAI_mult/AAI_mult/test_run_dir/Approx_multi_RawFN_should_multiply_two_floating_point_numbers/Approx_multi_RawFNWrapper.vcd
$date
2023-09-12T19:40+0000
$end
$version
0.2
$end
$comment

$end
$timescale 1ns  $end
$scope module Approx_multi_RawFNWrapper $end
 $var wire 1 % io_asyncResetSignal $end
 $var wire 8 ( io_a_exp $end
 $var wire 1 * clock $end
 $var wire 8 + io_rawOut_exp $end
 $var wire 1 , Approx_multi_RawFN $end
 $var wire 1 . reset $end
 $var wire 8 / io_b_exp $end
 $var wire 23 0 io_b_sig $end
 $var wire 1 1 io_resetDriver $end
 $var wire 23 2 io_a_sig $end
 $var wire 25 5 io_rawOut_sig $end
  $scope module Approx_multi_RawFN $end
   $var wire 8 ! io_rawOut_exp $end
   $var wire 1 " a_iszero $end
   $var wire 1 # b_iszero $end
   $var wire 8 $ io_b_exp $end
   $var wire 1 & io_asyncResetSignal $end
   $var wire 1 ' notNaN_isZeroOut $end
   $var wire 8 ) io_a_exp $end
   $var wire 24 - rawOut_sig $end
   $var wire 23 3 io_rawOut_sig $end
   $var wire 8 4 rawOut_exp_reg $end
   $var wire 23 6 io_a_sig $end
   $var wire 24 7 rawOut_sig_reg $end
   $var wire 23 8 io_b_sig $end
   $var wire 1 9 clock $end
   $var wire 8 : rawOut_exp $end
  $upscope $end
$upscope $end
$enddefinitions $end
$dumpvars
b00000000 +
01
b00000000 )
b00000000 (
09
b00000000 $
b000000000000000000000000 -
b00000000 !
b00000000 :
b00000000000000000000000 0
b000000000000000000000000 7
b00000000 4
b00000000 /
b00000000000000000000000 6
b00000000000000000000000 8
b00000000000000000000000 3
b00000000000000000000000 2
b0000000000000000000000000 5
0"
0#
0%
0&
0'
0*
0,
0.
$end
#0
1"
1#
1'
b10000001 :
1.
#1
b10000001 4
19
1*
#6
11
b00000000 4
1&
09
0*
0.
#11
19
1*
#16
01
0&
09
0*
#21
b10000001 4
19
1*
#26
b10000001 !
0"
0#
b10010010 $
0'
b10010000 (
b10010000 )
0*
b10000001 +
b011110101000110100111001 -
b10010010 /
b01011111010111111101111 0
b10010101101110101001010 2
b10010101101110101001010 6
b01011111010111111101111 8
09
b10100011 :
#31
b10100011 !
b11110101000110100111001 3
b10100011 4
b0011110101000110100111001 5
b011110101000110100111001 7
19
1*
b10100011 +
#36
09
0*
#41
19
1*
#46
09
0*
#51
19
1*
#56
09
0*
#61
19
1*
#66
09
0*
#71
19
1*
#76
09
0*
#81
19
1*
#86
09
0*
#91
19
1*
#96
09
0*
#101
19
1*
#106
09
0*
#111
19
1*
#116
09
0*
#121
19
1*
#126
09
0*
#131
19
1*
#136
b00000011011010101010101 0
b01111111100000101011000 2
b01111111100000101011000 6
b10010001 (
b00000011011010101010101 8
b10010001 )
09
0*
b10100100 :
b010000010111011010101101 -
#141
b10100100 !
b10000010111011010101101 3
b10100100 4
b0010000010111011010101101 5
b010000010111011010101101 7
19
1*
b10100100 +
#146
09
0*
#151
19
1*
#156
09
0*
#161
19
1*
#166
09
0*
#171
19
1*
#176
09
0*
#181
19
1*
#186
09
0*
#191
19
1*
#196
09
0*
#201
19
1*
#206
09
0*
#211
19
1*
#216
09
0*
#221
19
1*
#226
09
0*
#231
19
1*
#236
09
0*
#241
19
1*
#246
b10001110 $
b10010010 (
b10010010 )
0*
b011110111100010000001110 -
b10001110 /
b11000001010100001001001 0
b00110110001101111000101 2
b00110110001101111000101 6
b11000001010100001001001 8
09
b10100001 :
#251
b10100001 !
b11110111100010000001110 3
b10100001 4
b0011110111100010000001110 5
b011110111100010000001110 7
19
1*
b10100001 +
#256
09
0*
#261
19
1*
#266
09
0*
#271
19
1*
#276
09
0*
#281
19
1*
#286
09
0*
#291
19
1*
#296
09
0*
#301
19
1*
#306
09
0*
#311
19
1*
#316
09
0*
#321
19
1*
#326
09
0*
#331
19
1*
#336
09
0*
#341
19
1*
#346
09
0*
#351
19
1*
#356
b10010001 $
b10010001 (
b10010001 )
0*
b101011111001101010101001 -
b10010001 /
b11111010100011101111000 0
b01100100101001100110001 2
b01100100101001100110001 6
b11111010100011101111000 8
09
b10100011 :
#361
b10100100 !
b01011111001101010101001 3
b10100011 4
b0001011111001101010101001 5
b101011111001101010101001 7
19
1*
b10100100 +
#366
09
0*
#371
19
1*
#376
09
0*
#381
19
1*
#386
09
0*
#391
19
1*
#396
09
0*
#401
19
1*
#406
09
0*
#411
19
1*
#416
09
0*
#421
19
1*
#426
09
0*
#431
19
1*
#436
09
0*
#441
19
1*
#446
09
0*
#451
19
1*
#456
09
0*
#461
19
1*
#466
b01101100000010111110001 0
b01100110100010101110110 2
b10010000 $
b01100110100010101110110 6
b01101100000010111110001 8
09
0*
b10100010 :
b011010010100101101100111 -
b10010000 /
#471
b10100010 !
b11010010100101101100111 3
b10100010 4
b0011010010100101101100111 5
b011010010100101101100111 7
19
1*
b10100010 +
#476
09
0*
#481
19
1*
#486
09
0*
#491
19
1*
#496
09
0*
#501
19
1*
#506
09
0*
#511
19
1*
#516
09
0*
#521
19
1*
#526
09
0*
#531
19
1*
#536
09
0*
#541
19
1*
#546
09
0*
#551
19
1*
#556
09
0*
#561
19
1*
#566
09
0*
#571
19
1*
#576
b10010001 $
b10010010 (
b10010010 )
0*
b010001111100001000111111 -
b10010001 /
b01100110010011100010100 0
b00101001001101100101011 2
b00101001001101100101011 6
b01100110010011100010100 8
09
b10100100 :
#581
b10100100 !
b10001111100001000111111 3
b10100100 4
b0010001111100001000111111 5
b010001111100001000111111 7
19
1*
b10100100 +
#586
09
0*
#591
19
1*
#596
09
0*
#601
19
1*
#606
09
0*
#611
19
1*
#616
09
0*
#621
19
1*
#626
09
0*
#631
19
1*
#636
09
0*
#641
19
1*
#646
09
0*
#651
19
1*
#656
09
0*
#661
19
1*
#666
09
0*
#671
19
1*
#676
09
0*
#681
19
1*
#686
b10101011011110110100001 0
b11100110111110110010110 2
b10010010 $
b11100110111110110010110 6
b10101011011110110100001 8
09
0*
b10100101 :
b110010010011101100110111 -
b10010010 /
#691
b10100110 !
b10010010011101100110111 3
b10100101 4
b0010010010011101100110111 5
b110010010011101100110111 7
19
1*
b10100110 +
#696
09
0*
#701
19
1*
#706
09
0*
#711
19
1*
#716
09
0*
#721
19
1*
#726
09
0*
#731
19
1*
#736
09
0*
#741
19
1*
#746
09
0*
#751
19
1*
#756
09
0*
#761
19
1*
#766
09
0*
#771
19
1*
#776
09
0*
#781
19
1*
#786
09
0*
#791
19
1*
#796
b01111000000000111001010 0
b10100110000100011101110 2
b10010001 $
b10100110000100011101110 6
b01111000000000111001010 8
09
0*
b10100100 :
b100011110000101010111000 -
b10010001 /
#801
b10100101 !
b00011110000101010111000 3
b10100100 4
b0000011110000101010111000 5
b100011110000101010111000 7
19
1*
b10100101 +
#806
09
0*
#811
19
1*
#816
09
0*
#821
19
1*
#826
09
0*
#831
19
1*
#836
09
0*
#841
19
1*
#846
09
0*
#851
19
1*
#856
09
0*
#861
19
1*
#866
09
0*
#871
19
1*
#876
09
0*
#881
19
1*
#886
09
0*
#891
19
1*
#896
09
0*
#901
19
1*
#906
b11111010101111101001011 0
b00110111001101000001000 2
b10001111 $
b00110111001101000001000 6
b11111010101111101001011 8
09
0*
b10100010 :
b100110001111100101010011 -
b10001111 /
#911
b10100011 !
b00110001111100101010011 3
b10100010 4
b0000110001111100101010011 5
b100110001111100101010011 7
19
1*
b10100011 +
#916
09
0*
#921
19
1*
#926
09
0*
#931
19
1*
#936
09
0*
#941
19
1*
#946
09
0*
#951
19
1*
#956
09
0*
#961
19
1*
#966
09
0*
#971
19
1*
#976
09
0*
#981
19
1*
#986
09
0*
#991
19
1*
#996
09
0*
#1001
19
1*
#1006
09
0*
#1011
19
1*
#1016
b00111110110000101110111 0
b01111101110011101101010 2
b01111101110011101101010 6
b10010000 (
b00111110110000101110111 8
b10010000 )
09
0*
b10100000 :
b010111100100100011100001 -
#1021
b10100000 !
b10111100100100011100001 3
b10100000 4
b0010111100100100011100001 5
b010111100100100011100001 7
19
1*
b10100000 +
#1026
09
0*
#1031
19
1*
#1036
09
0*
#1041
19
1*
#1046
09
0*
#1051
19
1*
#1056
09
0*
#1061
19
1*
#1066
09
0*
#1071
19
1*
#1076
09
0*
#1081
19
1*
#1086
09
0*
#1091
19
1*
#1096
09
0*
#1101
19
1*
#1106
09
0*
#1111
19
1*
#1116
09
0*
#1121
19
1*
#1126
b10010001 $
b10001111 (
b10001111 )
0*
b100010000011000111001110 -
b10010001 /
b11010100110001101100011 0
b00111011100111001101011 2
b00111011100111001101011 6
b11010100110001101100011 8
09
b10100001 :
#1131
b10100010 !
b00010000011000111001110 3
b10100001 4
b0000010000011000111001110 5
b100010000011000111001110 7
19
1*
b10100010 +
#1136
09
0*
#1141
19
1*
#1146
09
0*
#1151
19
1*
#1156
09
0*
#1161
19
1*
#1166
09
0*
#1171
19
1*
#1176
09
0*
#1181
19
1*
#1186
09
0*
#1191
19
1*
#1196
09
0*
#1201
19
1*
#1206
09
0*
#1211
19
1*
#1216
09
0*
#1221
19
1*
#1226
09
0*
#1231
19
1*
#1236
b10010010 $
b10010010 (
b10010010 )
0*
b011100001100101011101001 -
b10010010 /
b00101000101111100010100 0
b10111000110101111010101 2
b10111000110101111010101 6
b00101000101111100010100 8
09
b10100101 :
#1241
b10100101 !
b11100001100101011101001 3
b10100101 4
b0011100001100101011101001 5
b011100001100101011101001 7
19
1*
b10100101 +
#1246
09
0*
#1251
19
1*
#1256
09
0*
#1261
19
1*
#1266
09
0*
#1271
19
1*
#1276
09
0*
#1281
19
1*
#1286
09
0*
#1291
19
1*
#1296
09
0*
#1301
19
1*
#1306
09
0*
#1311
19
1*
#1316
09
0*
#1321
19
1*
#1326
09
0*
#1331
19
1*
#1336
09
0*
#1341
19
1*
#1346
b10010001 $
b10010001 (
b10010001 )
0*
b011101010100100000010001 -
b10010001 /
b00101111101010111110001 0
b10111010111001000100000 2
b10111010111001000100000 6
b00101111101010111110001 8
09
b10100011 :
#1351
b10100011 !
b11101010100100000010001 3
b10100011 4
b0011101010100100000010001 5
b011101010100100000010001 7
19
1*
b10100011 +
#1356
09
0*
#1361
19
1*
#1366
09
0*
#1371
19
1*
#1376
09
0*
#1381
19
1*
#1386
09
0*
#1391
19
1*
#1396
09
0*
#1401
19
1*
#1406
09
0*
#1411
19
1*
#1416
09
0*
#1421
19
1*
#1426
09
0*
#1431
19
1*
#1436
09
0*
#1441
19
1*
#1446
09
0*
#1451
19
1*
#1456
b10010000 $
b10010010 (
b10010010 )
0*
b101111010000011011010011 -
b10010000 /
b11000110100010101100100 0
b10110011100000101101111 2
b10110011100000101101111 6
b11000110100010101100100 8
09
b10100011 :
#1461
b10100100 !
b01111010000011011010011 3
b0001111010000011011010011 5
b101111010000011011010011 7
19
1*
b10100100 +
#1466
09
0*
#1471
19
1*
#1476
09
0*
#1481
19
1*
#1486
09
0*
#1491
19
1*
#1496
09
0*
#1501
19
1*
#1506
09
0*
#1511
19
1*
#1516
09
0*
#1521
19
1*
#1526
09
0*
#1531
19
1*
#1536
09
0*
#1541
19
1*
#1546
09
0*
#1551
19
1*
#1556
09
0*
#1561
19
1*
#1566
b10010001 $
b10010001 (
b10010001 )
0*
b100000011001100111110011 -
b10010001 /
b11000100100000000001100 0
b00111110101100111100111 2
b00111110101100111100111 6
b11000100100000000001100 8
09
b10100011 :
#1571
b00000011001100111110011 3
b0000000011001100111110011 5
b100000011001100111110011 7
19
1*
#1576
09
0*
#1581
19
1*
#1586
09
0*
#1591
19
1*
#1596
09
0*
#1601
19
1*
#1606
09
0*
#1611
19
1*
#1616
09
0*
#1621
19
1*
#1626
09
0*
#1631
19
1*
#1636
09
0*
#1641
19
1*
#1646
09
0*
#1651
19
1*
#1656
09
0*
#1661
19
1*
#1666
09
0*
#1671
19
1*
#1676
b10010010 $
b10010000 (
b10010000 )
0*
b011000000101001000010110 -
b10010010 /
b01000111000101010011000 0
b01111001100011101111110 2
b01111001100011101111110 6
b01000111000101010011000 8
09
b10100011 :
#1681
b10100011 !
b11000000101001000010110 3
b0011000000101001000010110 5
b011000000101001000010110 7
19
1*
b10100011 +
#1686
09
0*
#1691
19
1*
#1696
09
0*
#1701
19
1*
#1706
09
0*
#1711
19
1*
#1716
09
0*
#1721
19
1*
#1726
09
0*
#1731
19
1*
#1736
09
0*
#1741
19
1*
#1746
09
0*
#1751
19
1*
#1756
09
0*
#1761
19
1*
#1766
09
0*
#1771
19
1*
#1776
09
0*
#1781
19
1*
#1786
b10001110 $
b10010001 (
b10010001 )
0*
b100000110010101100110101 -
b10001110 /
b10100111101011001100100 0
b01011110101010011010001 2
b01011110101010011010001 6
b10100111101011001100100 8
09
b10100000 :
#1791
b10100001 !
b00000110010101100110101 3
b10100000 4
b0000000110010101100110101 5
b100000110010101100110101 7
19
1*
b10100001 +
#1796
09
0*
#1801
19
1*
#1806
09
0*
#1811
19
1*
#1816
09
0*
#1821
19
1*
#1826
09
0*
#1831
19
1*
#1836
09
0*
#1841
19
1*
#1846
09
0*
#1851
19
1*
#1856
09
0*
#1861
19
1*
#1866
09
0*
#1871
19
1*
#1876
09
0*
#1881
19
1*
#1886
09
0*
#1891
19
1*
#1896
b10010010 $
b10010010 (
b10010010 )
0*
b100001000111000101110010 -
b10010010 /
b11010010011100010010111 0
b00110110011100011011011 2
b00110110011100011011011 6
b11010010011100010010111 8
09
b10100101 :
#1901
b10100110 !
b00001000111000101110010 3
b10100101 4
b0000001000111000101110010 5
b100001000111000101110010 7
19
1*
b10100110 +
#1906
09
0*
#1911
19
1*
#1916
09
0*
#1921
19
1*
#1926
09
0*
#1931
19
1*
#1936
09
0*
#1941
19
1*
#1946
09
0*
#1951
19
1*
#1956
09
0*
#1961
19
1*
#1966
09
0*
#1971
19
1*
#1976
09
0*
#1981
19
1*
#1986
09
0*
#1991
19
1*
#1996
09
0*
#2001
19
1*
#2006
b01100110111100011100001 0
b01010011010010111100111 2
b01010011010010111100111 6
b01100110111100011100001 8
09
0*
b010111010001111011001000 -
#2011
b10100101 !
b10111010001111011001000 3
b0010111010001111011001000 5
b010111010001111011001000 7
19
1*
b10100101 +
#2016
09
0*
#2021
19
1*
#2026
09
0*
#2031
19
1*
#2036
09
0*
#2041
19
1*
#2046
09
0*
#2051
19
1*
#2056
09
0*
#2061
19
1*
#2066
09
0*
#2071
19
1*
#2076
09
0*
#2081
19
1*
#2086
09
0*
#2091
19
1*
#2096
09
0*
#2101
19
1*
#2106
09
0*
#2111
19
1*
#2116
b00000001011011101111101 0
b11100101011011000100100 2
b11100101011011000100100 6
b00000001011011101111101 8
09
0*
b011100110110110110100001 -
#2121
b11100110110110110100001 3
b0011100110110110110100001 5
b011100110110110110100001 7
19
1*
#2126
09
0*
#2131
19
1*
#2136
09
0*
#2141
19
1*
#2146
09
0*
#2151
19
1*
#2156
09
0*
#2161
19
1*
#2166
09
0*
#2171
19
1*
#2176
09
0*
#2181
19
1*
#2186
09
0*
#2191
19
1*
#2196
09
0*
#2201
19
1*
#2206
09
0*
#2211
19
1*
#2216
09
0*
#2221
19
1*
#2226
b10110100000110101011100 0
b00111110001101011110000 2
b00111110001101011110000 6
b10010001 (
b10110100000110101011100 8
b10010001 )
09
0*
b10100100 :
b011110010010100001001100 -
#2231
b10100100 !
b11110010010100001001100 3
b10100100 4
b0011110010010100001001100 5
b011110010010100001001100 7
19
1*
b10100100 +
#2236
09
0*
#2241
19
1*
#2246
09
0*
#2251
19
1*
#2256
09
0*
#2261
19
1*
#2266
09
0*
#2271
19
1*
#2276
09
0*
#2281
19
1*
#2286
09
0*
#2291
19
1*
#2296
09
0*
#2301
19
1*
#2306
09
0*
#2311
19
1*
#2316
09
0*
#2321
19
1*
#2326
09
0*
#2331
19
1*
#2336
b00001010010011110110101 0
b00011111001011100100011 2
b00011111001011100100011 6
b10001101 (
b00001010010011110110101 8
b10001101 )
09
0*
b10100000 :
b000101001011111011011000 -
#2341
b10100000 !
b00101001011111011011000 3
b10100000 4
b0000101001011111011011000 5
b000101001011111011011000 7
19
1*
b10100000 +
#2346
09
0*
#2351
19
1*
#2356
09
0*
#2361
19
1*
#2366
09
0*
#2371
19
1*
#2376
09
0*
#2381
19
1*
#2386
09
0*
#2391
19
1*
#2396
09
0*
#2401
19
1*
#2406
09
0*
#2411
19
1*
#2416
09
0*
#2421
19
1*
#2426
09
0*
#2431
19
1*
#2436
09
0*
#2441
19
1*
#2446
b10010000 $
b10010001 (
b10010001 )
0*
b010011000010100011101001 -
b10010000 /
b00011010111100100000101 0
b01111101010111111100100 2
b01111101010111111100100 6
b00011010111100100000101 8
09
b10100010 :
#2451
b10100010 !
b10011000010100011101001 3
b10100010 4
b0010011000010100011101001 5
b010011000010100011101001 7
19
1*
b10100010 +
#2456
09
0*
#2461
19
1*
#2466
09
0*
#2471
19
1*
#2476
09
0*
#2481
19
1*
#2486
09
0*
#2491
19
1*
#2496
09
0*
#2501
19
1*
#2506
09
0*
#2511
19
1*
#2516
09
0*
#2521
19
1*
#2526
09
0*
#2531
19
1*
#2536
09
0*
#2541
19
1*
#2546
09
0*
#2551
19
1*
#2556
b10010010 $
b10010010 (
b10010010 )
0*
b011100101010111101100001 -
b10010010 /
b10010010011011100110100 0
b01010010111100000101101 2
b01010010111100000101101 6
b10010010011011100110100 8
09
b10100101 :
#2561
b10100101 !
b11100101010111101100001 3
b10100101 4
b0011100101010111101100001 5
b011100101010111101100001 7
19
1*
b10100101 +
#2566
09
0*
#2571
19
1*
#2576
09
0*
#2581
19
1*
#2586
09
0*
#2591
19
1*
#2596
09
0*
#2601
19
1*
#2606
09
0*
#2611
19
1*
#2616
09
0*
#2621
19
1*
#2626
09
0*
#2631
19
1*
#2636
09
0*
#2641
19
1*
#2646
09
0*
#2651
19
1*
#2656
09
0*
#2661
19
1*
#2666
b10010000 $
b10010001 (
b10010001 )
0*
b000100010011000100000011 -
b10010000 /
b00011100011000110000110 0
b00000101111111101111101 2
b00000101111111101111101 6
b00011100011000110000110 8
09
b10100010 :
#2671
b10100010 !
b00100010011000100000011 3
b10100010 4
b0000100010011000100000011 5
b000100010011000100000011 7
19
1*
b10100010 +
#2676
09
0*
#2681
19
1*
#2686
09
0*
#2691
19
1*
#2696
09
0*
#2701
19
1*
#2706
09
0*
#2711
19
1*
#2716
09
0*
#2721
19
1*
#2726
09
0*
#2731
19
1*
#2736
09
0*
#2741
19
1*
#2746
09
0*
#2751
19
1*
#2756
09
0*
#2761
19
1*
#2766
09
0*
#2771
19
1*
#2776
b11011110011010111010010 0
b10100000011101110101111 2
b10010010 $
b10100000011101110101111 6
b11011110011010111010010 8
09
0*
b10100100 :
b101111110111000110000001 -
b10010010 /
#2781
b10100101 !
b01111110111000110000001 3
b10100100 4
b0001111110111000110000001 5
b101111110111000110000001 7
19
1*
b10100101 +
#2786
09
0*
#2791
19
1*
#2796
09
0*
#2801
19
1*
#2806
09
0*
#2811
19
1*
#2816
09
0*
#2821
19
1*
#2826
09
0*
#2831
19
1*
#2836
09
0*
#2841
19
1*
#2846
09
0*
#2851
19
1*
#2856
09
0*
#2861
19
1*
#2866
09
0*
#2871
19
1*
#2876
09
0*
#2881
19
1*
#2886
b10010001 $
b10010010 (
b10010010 )
0*
b011011100011011110001011 -
b10010001 /
b11010100111010001011111 0
b00000111100001100101100 2
b00000111100001100101100 6
b11010100111010001011111 8
09
b10100100 :
#2891
b10100100 !
b11011100011011110001011 3
b0011011100011011110001011 5
b011011100011011110001011 7
19
1*
b10100100 +
#2896
09
0*
#2901
19
1*
#2906
09
0*
#2911
19
1*
#2916
09
0*
#2921
19
1*
#2926
09
0*
#2931
19
1*
#2936
09
0*
#2941
19
1*
#2946
09
0*
#2951
19
1*
#2956
09
0*
#2961
19
1*
#2966
09
0*
#2971
19
1*
#2976
09
0*
#2981
19
1*
#2986
09
0*
#2991
19
1*
#2996
b10010010 $
b10010001 (
b10010001 )
0*
b000111000000100110110001 -
b10010010 /
b00001100110100010101111 0
b00101011010000100000010 2
b00101011010000100000010 6
b00001100110100010101111 8
09
b10100100 :
#3001
b00111000000100110110001 3
b0000111000000100110110001 5
b000111000000100110110001 7
19
1*
#3006
09
0*
#3011
19
1*
#3016
09
0*
#3021
19
1*
#3026
09
0*
#3031
19
1*
#3036
09
0*
#3041
19
1*
#3046
09
0*
#3051
19
1*
#3056
09
0*
#3061
19
1*
#3066
09
0*
#3071
19
1*
#3076
09
0*
#3081
19
1*
#3086
09
0*
#3091
19
1*
#3096
09
0*
#3101
19
1*
#3106
b10001101 $
b10010010 (
b10010010 )
0*
b011101000001100111111100 -
b10001101 /
b10111001111100010111110 0
b00101110010000100111110 2
b00101110010000100111110 6
b10111001111100010111110 8
09
b10100000 :
#3111
b10100000 !
b11101000001100111111100 3
b10100000 4
b0011101000001100111111100 5
b011101000001100111111100 7
19
1*
b10100000 +
#3116
09
0*
#3121
19
1*
#3126
09
0*
#3131
19
1*
#3136
09
0*
#3141
19
1*
#3146
09
0*
#3151
19
1*
#3156
09
0*
#3161
19
1*
#3166
09
0*
#3171
19
1*
#3176
09
0*
#3181
19
1*
#3186
09
0*
#3191
19
1*
#3196
09
0*
#3201
19
1*
#3206
09
0*
#3211
19
1*
#3216
b10010010 $
b10010000 (
b10010000 )
0*
b011110110111010111100000 -
b10010010 /
b00100101010100010001100 0
b11010001100110101010100 2
b11010001100110101010100 6
b00100101010100010001100 8
09
b10100011 :
#3221
b10100011 !
b11110110111010111100000 3
b10100011 4
b0011110110111010111100000 5
b011110110111010111100000 7
19
1*
b10100011 +
#3226
09
0*
#3231
19
1*
#3236
09
0*
#3241
19
1*
#3246
09
0*
#3251
19
1*
#3256
09
0*
#3261
19
1*
#3266
09
0*
#3271
19
1*
#3276
09
0*
#3281
19
1*
#3286
09
0*
#3291
19
1*
#3296
09
0*
#3301
19
1*
#3306
09
0*
#3311
19
1*
#3316
09
0*
#3321
19
1*
#3326
b10001101 $
b10010010 (
b10010010 )
0*
b011000000111111111101100 -
b10001101 /
b10100001000010110101110 0
b00011111111101000111110 2
b00011111111101000111110 6
b10100001000010110101110 8
09
b10100000 :
#3331
b10100000 !
b11000000111111111101100 3
b10100000 4
b0011000000111111111101100 5
b011000000111111111101100 7
19
1*
b10100000 +
#3336
09
0*
#3341
19
1*
#3346
09
0*
#3351
19
1*
#3356
09
0*
#3361
19
1*
#3366
09
0*
#3371
19
1*
#3376
09
0*
#3381
19
1*
#3386
09
0*
#3391
19
1*
#3396
09
0*
#3401
19
1*
#3406
09
0*
#3411
19
1*
#3416
09
0*
#3421
19
1*
#3426
09
0*
#3431
19
1*
#3436
b10001110 $
b10010000 (
b10010000 )
0*
b011100010101001011111101 -
b10001110 /
b01011001001001101010010 0
b10001001011111110101011 2
b10001001011111110101011 6
b01011001001001101010010 8
09
b10011111 :
#3441
b10011111 !
b11100010101001011111101 3
b10011111 4
b0011100010101001011111101 5
b011100010101001011111101 7
19
1*
b10011111 +
#3446
09
0*
#3451
19
1*
#3456
09
0*
#3461
19
1*
#3466
09
0*
#3471
19
1*
#3476
09
0*
#3481
19
1*
#3486
09
0*
#3491
19
1*
#3496
09
0*
#3501
19
1*
#3506
09
0*
#3511
19
1*
#3516
09
0*
#3521
19
1*
#3526
09
0*
#3531
19
1*
#3536
09
0*
#3541
19
1*
#3546
b10010010 $
b10010001 (
b10010001 )
0*
b011101110111100011100111 -
b10010010 /
b00001001101100111001101 0
b11100101001111100011010 2
b11100101001111100011010 6
b00001001101100111001101 8
09
b10100100 :
#3551
b10100100 !
b11101110111100011100111 3
b10100100 4
b0011101110111100011100111 5
b011101110111100011100111 7
19
1*
b10100100 +
#3556
09
0*
#3561
19
1*
#3566
09
0*
#3571
19
1*
#3576
09
0*
#3581
19
1*
#3586
09
0*
#3591
19
1*
#3596
09
0*
#3601
19
1*
#3606
09
0*
#3611
19
1*
#3616
09
0*
#3621
19
1*
#3626
09
0*
#3631
19
1*
#3636
09
0*
#3641
19
1*
#3646
09
0*
#3651
19
1*
#3656
b10010000 $
b10001111 (
b10001111 )
0*
b101101111101100001110010 -
b10010000 /
b10010100100001000000101 0
b11011011001011001101101 2
b11011011001011001101101 6
b10010100100001000000101 8
09
b10100000 :
#3661
b10100001 !
b01101111101100001110010 3
b10100000 4
b0001101111101100001110010 5
b101101111101100001110010 7
19
1*
b10100001 +
#3666
09
0*
#3671
19
1*
#3676
09
0*
#3681
19
1*
#3686
09
0*
#3691
19
1*
#3696
09
0*
#3701
19
1*
#3706
09
0*
#3711
19
1*
#3716
09
0*
#3721
19
1*
#3726
09
0*
#3731
19
1*
#3736
09
0*
#3741
19
1*
#3746
09
0*
#3751
19
1*
#3756
09
0*
#3761
19
1*
#3766
b10011001000110001110000 0
b01111011011000111010000 2
b01111011011000111010000 6
b10011001000110001110000 8
09
0*
b100010100011111001000000 -
#3771
b00010100011111001000000 3
b0000010100011111001000000 5
b100010100011111001000000 7
19
1*
#3776
09
0*
#3781
19
1*
#3786
09
0*
#3791
19
1*
#3796
09
0*
#3801
19
1*
#3806
09
0*
#3811
19
1*
#3816
09
0*
#3821
19
1*
#3826
09
0*
#3831
19
1*
#3836
09
0*
#3841
19
1*
#3846
09
0*
#3851
19
1*
#3856
09
0*
#3861
19
1*
#3866
09
0*
#3871
19
1*
#3876
b10010010 $
b10010001 (
b10010001 )
0*
b100110110100110011011000 -
b10010010 /
b00110111000011001101100 0
b11111111100011001101100 2
b11111111100011001101100 6
b00110111000011001101100 8
09
b10100100 :
#3881
b10100101 !
b00110110100110011011000 3
b10100100 4
b0000110110100110011011000 5
b100110110100110011011000 7
19
1*
b10100101 +
#3886
09
0*
#3891
19
1*
#3896
09
0*
#3901
19
1*
#3906
09
0*
#3911
19
1*
#3916
09
0*
#3921
19
1*
#3926
09
0*
#3931
19
1*
#3936
09
0*
#3941
19
1*
#3946
09
0*
#3951
19
1*
#3956
09
0*
#3961
19
1*
#3966
09
0*
#3971
19
1*
#3976
09
0*
#3981
19
1*
#3986
b10000101100111100110111 0
b01000101110100101111000 2
b01000101110100101111000 6
b10000101100111100110111 8
09
0*
b011001011011100010101111 -
#3991
b10100100 !
b11001011011100010101111 3
b0011001011011100010101111 5
b011001011011100010101111 7
19
1*
b10100100 +
#3996
09
0*
#4001
19
1*
#4006
09
0*
#4011
19
1*
#4016
09
0*
#4021
19
1*
#4026
09
0*
#4031
19
1*
#4036
09
0*
#4041
19
1*
#4046
09
0*
#4051
19
1*
#4056
09
0*
#4061
19
1*
#4066
09
0*
#4071
19
1*
#4076
09
0*
#4081
19
1*
#4086
09
0*
#4091
19
1*
#4096
b11101000000010000000001 0
b10000001001001001001101 2
b10000001001001001001101 6
b10010000 (
b11101000000010000000001 8
b10010000 )
09
0*
b10100011 :
b101101001001011001001110 -
#4101
b01101001001011001001110 3
b10100011 4
b0001101001001011001001110 5
b101101001001011001001110 7
19
1*
#4106
09
0*
#4111
19
1*
#4116
09
0*
#4121
19
1*
#4126
09
0*
#4131
19
1*
#4136
09
0*
#4141
19
1*
#4146
09
0*
#4151
19
1*
#4156
09
0*
#4161
19
1*
#4166
09
0*
#4171
19
1*
#4176
09
0*
#4181
19
1*
#4186
09
0*
#4191
19
1*
#4196
09
0*
#4201
19
1*
#4206
b01011011111111111001101 0
b00011100101011111110101 2
b00011100101011111110101 6
b10001111 (
b01011011111111111001101 8
b10001111 )
09
0*
b10100010 :
b001111000101011111000010 -
#4211
b10100010 !
b01111000101011111000010 3
b10100010 4
b0001111000101011111000010 5
b001111000101011111000010 7
19
1*
b10100010 +
#4216
09
0*
#4221
19
1*
#4226
09
0*
#4231
19
1*
#4236
09
0*
#4241
19
1*
#4246
09
0*
#4251
19
1*
#4256
09
0*
#4261
19
1*
#4266
09
0*
#4271
19
1*
#4276
09
0*
#4281
19
1*
#4286
09
0*
#4291
19
1*
#4296
09
0*
#4301
19
1*
#4306
09
0*
#4311
19
1*
#4316
b00001011111100110101110 0
b01100100010001010111101 2
b01100100010001010111101 6
b00001011111100110101110 8
09
0*
b001110000001110001101011 -
#4321
b01110000001110001101011 3
b0001110000001110001101011 5
b001110000001110001101011 7
19
1*
#4326
09
0*
#4331
19
1*
#4336
09
0*
#4341
19
1*
#4346
09
0*
#4351
19
1*
#4356
09
0*
#4361
19
1*
#4366
09
0*
#4371
19
1*
#4376
09
0*
#4381
19
1*
#4386
09
0*
#4391
19
1*
#4396
09
0*
#4401
19
1*
#4406
09
0*
#4411
19
1*
#4416
09
0*
#4421
19
1*
#4426
b11001111000001101111010 0
b10000110100000010100001 2
b10000110100000010100001 6
b10010010 (
b11001111000001101111010 8
b10010010 )
09
0*
b10100101 :
b101010101100010000011011 -
#4431
b10100110 !
b01010101100010000011011 3
b10100101 4
b0001010101100010000011011 5
b101010101100010000011011 7
19
1*
b10100110 +
#4436
09
0*
#4441
19
1*
#4446
09
0*
#4451
19
1*
#4456
09
0*
#4461
19
1*
#4466
09
0*
#4471
19
1*
#4476
09
0*
#4481
19
1*
#4486
09
0*
#4491
19
1*
#4496
09
0*
#4501
19
1*
#4506
09
0*
#4511
19
1*
#4516
09
0*
#4521
19
1*
#4526
09
0*
#4531
19
1*
#4536
b11010100110011100001001 0
b11100001110101101111010 2
b10001111 $
b11100001110101101111010 6
b11010100110011100001001 8
09
0*
b10100010 :
b110110110101001010000011 -
b10001111 /
#4541
b10100011 !
b10110110101001010000011 3
b10100010 4
b0010110110101001010000011 5
b110110110101001010000011 7
19
1*
b10100011 +
#4546
09
0*
#4551
19
1*
#4556
09
0*
#4561
19
1*
#4566
09
0*
#4571
19
1*
#4576
09
0*
#4581
19
1*
#4586
09
0*
#4591
19
1*
#4596
09
0*
#4601
19
1*
#4606
09
0*
#4611
19
1*
#4616
09
0*
