floating_add/floating_add/test_run_dir/MulRawFN_should_multiply_two_floating_point_numbers/AddRawFNWrapper.vcd
$date
2023-09-12T18:53+0000
$end
$version
0.2
$end
$comment

$end
$timescale 1ns  $end
$scope module AddRawFNWrapper $end
 $var wire 1 % io_asyncResetSignal $end
 $var wire 8 ( io_a_exp $end
 $var wire 8 ) io_rawOut_exp $end
 $var wire 1 + reset $end
 $var wire 1 . io_resetDriver $end
 $var wire 23 0 io_a_sig $end
 $var wire 1 1 addRawFN $end
 $var wire 1 B clock $end
 $var wire 8 G io_b_exp $end
 $var wire 23 I io_b_sig $end
 $var wire 25 P io_rawOut_sig $end
  $scope module addRawFN $end
   $var wire 8 ! io_rawOut_exp $end
   $var wire 8 " fullrawout_exp $end
   $var wire 9 # modNatAlignDist $end
   $var wire 48 $ pre_shifted_sig_reg $end
   $var wire 24 & preRoundSig $end
   $var wire 48 ' shifted_sig $end
   $var wire 1 * guardBit $end
   $var wire 23 , io_b_sig $end
   $var wire 25 - sig_sum_1_hi $end
   $var wire 48 / fullrawout_sig $end
   $var wire 48 2 sig_sum_1 $end
   $var wire 1 3 roundBit $end
   $var wire 1 4 b_iszero $end
   $var wire 8 5 io_a_exp $end
   $var wire 1 6 clock $end
   $var wire 48 7 shifted_sig_reg $end
   $var wire 1 8 roundUp $end
   $var wire 1 9 stickyBit $end
   $var wire 23 : io_a_sig $end
   $var wire 9 ; sDiffExps_reg $end
   $var wire 1 < leastSigBitOfResult $end
   $var wire 8 = rawOut_exp $end
   $var wire 48 > fullrawout_sig_reg $end
   $var wire 23 ? rawOut_sig_reg $end
   $var wire 1 @ io_asyncResetSignal $end
   $var wire 48 A sig_sum_reg $end
   $var wire 1 C a_iszero $end
   $var wire 1 D notNaN_isZeroOut $end
   $var wire 23 E small_sig $end
   $var wire 48 F sig_sum $end
   $var wire 8 H io_b_exp $end
   $var wire 8 J rawOut_exp_reg $end
   $var wire 23 K io_rawOut_sig $end
   $var wire 8 L common_exp $end
   $var wire 48 M pre_shifted_sig $end
   $var wire 9 N sDiffExps $end
   $var wire 8 O fullrawout_exp_reg $end
   $var wire 23 Q large_sig $end
   $var wire 24 R rawOut_sig $end
   $var wire 25 S pre_shifted_sig_hi $end
  $upscope $end
$upscope $end
$enddefinitions $end
$dumpvars
01
03
04
06
08
09
0<
0@
b000000000000000000000000000000000000000000000000 M
b0000000000000000000000000 S
0B
b000000000 #
0C
b00000000000000000000000 0
0D
b000000000000000000000000000000000000000000000000 F
b00000000000000000000000 ,
b000000000000000000000000000000000000000000000000 A
b000000000000000000000000000000000000000000000000 >
b00000000000000000000000 ?
b00000000 J
b00000000 L
b00000000 G
b00000000000000000000000 :
b00000000 H
b000000000 ;
b00000000000000000000000 Q
b00000000000000000000000 K
b000000000000000000000000 R
b00000000000000000000000 I
b00000000 O
b00000000000000000000000 E
b000000000 N
b00000000 )
b00000000 (
b0000000000000000000000000 -
b00000000 "
b000000000000000000000000 &
b00000000 !
b00000000 =
b00000000 5
b000000000000000000000000000000000000000000000000 7
b000000000000000000000000000000000000000000000000 2
b0000000000000000000000000 P
b000000000000000000000000000000000000000000000000 /
0%
b000000000000000000000000000000000000000000000000 '
b000000000000000000000000000000000000000000000000 $
0*
0+
0.
$end
#0
b010000000000000000000000000000000000000000000000 2
1C
b0100000000000000000000000 S
14
1D
b010000000000000000000000000000000000000000000000 F
1+
b0100000000000000000000000 -
b010000000000000000000000000000000000000000000000 M
#1
b010000000000000000000000000000000000000000000000 A
1B
b010000000000000000000000000000000000000000000000 $
16
b010000000000000000000000000000000000000000000000 '
#6
1@
b000000000000000000000000000000000000000000000000 A
0B
b000000000000000000000000000000000000000000000000 $
06
b000000000000000000000000000000000000000000000000 '
0+
1.
#11
1B
16
#16
0@
0B
06
0.
#21
b010000000000000000000000000000000000000000000000 A
1B
b010000000000000000000000000000000000000000000000 $
16
b010000000000000000000000000000000000000000000000 '
#26
b01111101 "
0B
0D
b00011101110010110110110 E
b01111101 G
b01111101 H
b00011101110010110110110 I
b00011101110010110110110 ,
b010001110111001011011011000000000000000000000000 M
b110000011 N
b000111011100101101101100000000000000000000000000 /
b0100011101110010110110110 S
04
06
#31
1B
b001111101 #
b010001110111001011011011000000000000000000000000 $
b00000000000000000000000 E
b000011101110010110110110 &
b100001110111001011011011000000000000000000000000 F
b000000000000000000000000000000000000000000000000 '
b01111101 L
b0100011101110010110110110 -
b000000000000000000000000000000000000000000000000 M
b01111101 O
b00011101110010110110110 Q
b010001110111001011011011000000000000000000000000 2
b000011101110010110110110 R
b0100000000000000000000000 S
16
b010000000000000000000000000000000000000000000000 7
b110000011 ;
b01111101 =
b000111011100101101101100000000000000000000000000 >
#36
0B
06
#41
b01111101 !
b100001110111001011011011000000000000000000000000 A
1B
b000000000000000000000000000000000000000000000000 $
b010001110111001011011011000000000000000000000000 F
b01111101 )
b01111101 J
b00011101110010110110110 K
b0000011101110010110110110 P
16
b000000000000000000000000000000000000000000000000 7
b00011101110010110110110 ?
#46
0B
06
#51
b010001110111001011011011000000000000000000000000 A
1B
16
